Which Edwards sister was the more effective hitter? - Kylee Sodomka's Project
…
Once again, the older sister is proving to be more productive than the younger one. It is easy to compare between only two players, though. What if we compared Tristen and Taylor to their teammates throughout the years?

I will create a scatterplot to compare the sisters to their peers on how many at-bats led to RBIs in a season. I will use the “huskerplayers” dataframe I created earlier and create a new column that combines the athlete’s name and the year. I will call this new addition “PlayerSeason.”

huskerplayers %>%
  mutate(
    PlayerSeason = paste(Player, Season, sep=" ")
  )

## # A tibble: 159 × 21
##    Season Player       AVG    AB     R     H  `2B`  `3B`    HR   RBI    TB   SLG
##     <dbl> <chr>      <dbl> <dbl> <dbl> <dbl> <dbl> <dbl> <dbl> <dbl> <dbl> <dbl>
##  1   2011 Taylor Ed… 0.356   160    37    57     7     0    18    67   118 0.738
##  2   2011 Nikki Hag… 0.341   182    51    62     5     0     1    12    70 0.385
##  3   2011 Julie Bre… 0.323   155    37    50     9     0     6    33    77 0.497
##  4   2011 Brooke Th… 0.319   163    32    52     3     0     8    34    79 0.485
##  5   2011 Tatum Edw… 0.285   165    33    47     8     0    14    42    97 0.588
##  6   2011 Ashley Gu… 0.283   159    12    45     6     1     1    23    56 0.352
##  7   2011 Megan Sou… 0.276    76     9    21     4     0     0     6    25 0.329
##  8   2011 Heidi Fol… 0.275   167    26    46     9     0     5    27    70 0.419
##  9   2011 Gabby Ban… 0.274   135    26    37    10     0     1    10    50 0.37 
## 10   2011 Madison D… 0.258    62    12    16     2     0     4    12    30 0.484
## # … with 149 more rows, and 9 more variables: BB <dbl>, HBP <dbl>, SO <dbl>,
## #   GDP <dbl>, OBP <dbl>, SF <dbl>, SH <dbl>, OPS <dbl>, PlayerSeason <chr>
…
I will use this new dataframe and filter it down to players who have more than 20 at-bats. Many players were listed that had zero at-bats. That wouldn’t look good for the data, so they’re out. I will group by PlayerSeason and find the sum of at-bats and RBIs for each athlete.

newhuskerplayers %>%
  filter(AB > 20) %>%
  group_by(PlayerSeason) %>%
  summarize(
    AtBats = sum(AB),
    RBIs = sum(RBI)
  ) %>%
  na.omit()

## # A tibble: 110 × 3
##    PlayerSeason          AtBats  RBIs
##    <chr>                  <dbl> <dbl>
##  1 Abbie Squier 2021         35     4
##  2 Alexis Perry 2017        123    11
##  3 Alexis Perry 2018         32     4
##  4 Alicia Armstrong 2013    179    19
##  5 Alicia Armstrong 2014    174    27
##  6 Ally Riley 2018           63    14
##  7 Ally Riley 2020           43     7
##  8 Ally Riley 2021           48     2
##  9 Alyvia Simmons 2017      150    22
## 10 Alyvia Simmons 2018      162    24
## # … with 100 more rows
…
